# 1 "SeriCon_lib/CRC16_CCITT.c"
# 1 "<built-in>" 1
# 1 "<built-in>" 3
# 288 "<built-in>" 3
# 1 "<command line>" 1
# 1 "<built-in>" 2
# 1 "/Applications/microchip/xc8/v2.20/pic/include/language_support.h" 1 3
# 2 "<built-in>" 2
# 1 "SeriCon_lib/CRC16_CCITT.c" 2
# 34 "SeriCon_lib/CRC16_CCITT.c"
# 1 "SeriCon_lib/CRC16_CCITT.h" 1
# 37 "SeriCon_lib/CRC16_CCITT.h"
# 1 "/Applications/microchip/xc8/v2.20/pic/include/c99/stdint.h" 1 3



# 1 "/Applications/microchip/xc8/v2.20/pic/include/c99/musl_xc8.h" 1 3
# 5 "/Applications/microchip/xc8/v2.20/pic/include/c99/stdint.h" 2 3
# 22 "/Applications/microchip/xc8/v2.20/pic/include/c99/stdint.h" 3
# 1 "/Applications/microchip/xc8/v2.20/pic/include/c99/bits/alltypes.h" 1 3
# 127 "/Applications/microchip/xc8/v2.20/pic/include/c99/bits/alltypes.h" 3
typedef unsigned long uintptr_t;
# 142 "/Applications/microchip/xc8/v2.20/pic/include/c99/bits/alltypes.h" 3
typedef long intptr_t;
# 158 "/Applications/microchip/xc8/v2.20/pic/include/c99/bits/alltypes.h" 3
typedef signed char int8_t;




typedef short int16_t;




typedef __int24 int24_t;




typedef long int32_t;





typedef long long int64_t;
# 188 "/Applications/microchip/xc8/v2.20/pic/include/c99/bits/alltypes.h" 3
typedef long long intmax_t;





typedef unsigned char uint8_t;




typedef unsigned short uint16_t;




typedef __uint24 uint24_t;




typedef unsigned long uint32_t;





typedef unsigned long long uint64_t;
# 229 "/Applications/microchip/xc8/v2.20/pic/include/c99/bits/alltypes.h" 3
typedef unsigned long long uintmax_t;
# 23 "/Applications/microchip/xc8/v2.20/pic/include/c99/stdint.h" 2 3

typedef int8_t int_fast8_t;

typedef int64_t int_fast64_t;


typedef int8_t int_least8_t;
typedef int16_t int_least16_t;

typedef int24_t int_least24_t;

typedef int32_t int_least32_t;

typedef int64_t int_least64_t;


typedef uint8_t uint_fast8_t;

typedef uint64_t uint_fast64_t;


typedef uint8_t uint_least8_t;
typedef uint16_t uint_least16_t;

typedef uint24_t uint_least24_t;

typedef uint32_t uint_least32_t;

typedef uint64_t uint_least64_t;
# 139 "/Applications/microchip/xc8/v2.20/pic/include/c99/stdint.h" 3
# 1 "/Applications/microchip/xc8/v2.20/pic/include/c99/bits/stdint.h" 1 3
typedef int32_t int_fast16_t;
typedef int32_t int_fast32_t;
typedef uint32_t uint_fast16_t;
typedef uint32_t uint_fast32_t;
# 140 "/Applications/microchip/xc8/v2.20/pic/include/c99/stdint.h" 2 3
# 38 "SeriCon_lib/CRC16_CCITT.h" 2
# 1 "/Applications/microchip/xc8/v2.20/pic/include/c99/stdio.h" 1 3
# 10 "/Applications/microchip/xc8/v2.20/pic/include/c99/stdio.h" 3
# 1 "/Applications/microchip/xc8/v2.20/pic/include/c99/features.h" 1 3
# 11 "/Applications/microchip/xc8/v2.20/pic/include/c99/stdio.h" 2 3
# 24 "/Applications/microchip/xc8/v2.20/pic/include/c99/stdio.h" 3
# 1 "/Applications/microchip/xc8/v2.20/pic/include/c99/bits/alltypes.h" 1 3





typedef void * va_list[1];




typedef void * __isoc_va_list[1];
# 122 "/Applications/microchip/xc8/v2.20/pic/include/c99/bits/alltypes.h" 3
typedef unsigned size_t;
# 137 "/Applications/microchip/xc8/v2.20/pic/include/c99/bits/alltypes.h" 3
typedef long ssize_t;
# 246 "/Applications/microchip/xc8/v2.20/pic/include/c99/bits/alltypes.h" 3
typedef long long off_t;
# 399 "/Applications/microchip/xc8/v2.20/pic/include/c99/bits/alltypes.h" 3
typedef struct _IO_FILE FILE;
# 25 "/Applications/microchip/xc8/v2.20/pic/include/c99/stdio.h" 2 3
# 52 "/Applications/microchip/xc8/v2.20/pic/include/c99/stdio.h" 3
typedef union _G_fpos64_t {
 char __opaque[16];
 double __align;
} fpos_t;

extern FILE *const stdin;
extern FILE *const stdout;
extern FILE *const stderr;





FILE *fopen(const char *restrict, const char *restrict);
FILE *freopen(const char *restrict, const char *restrict, FILE *restrict);
int fclose(FILE *);

int remove(const char *);
int rename(const char *, const char *);

int feof(FILE *);
int ferror(FILE *);
int fflush(FILE *);
void clearerr(FILE *);

int fseek(FILE *, long, int);
long ftell(FILE *);
void rewind(FILE *);

int fgetpos(FILE *restrict, fpos_t *restrict);
int fsetpos(FILE *, const fpos_t *);

size_t fread(void *restrict, size_t, size_t, FILE *restrict);
size_t fwrite(const void *restrict, size_t, size_t, FILE *restrict);

int fgetc(FILE *);
int getc(FILE *);
int getchar(void);
int ungetc(int, FILE *);

int fputc(int, FILE *);
int putc(int, FILE *);
int putchar(int);

char *fgets(char *restrict, int, FILE *restrict);

char *gets(char *);


int fputs(const char *restrict, FILE *restrict);
int puts(const char *);

#pragma printf_check(printf) const
#pragma printf_check(vprintf) const
#pragma printf_check(sprintf) const
#pragma printf_check(snprintf) const
#pragma printf_check(vsprintf) const
#pragma printf_check(vsnprintf) const

int printf(const char *restrict, ...);
int fprintf(FILE *restrict, const char *restrict, ...);
int sprintf(char *restrict, const char *restrict, ...);
int snprintf(char *restrict, size_t, const char *restrict, ...);

int vprintf(const char *restrict, __isoc_va_list);
int vfprintf(FILE *restrict, const char *restrict, __isoc_va_list);
int vsprintf(char *restrict, const char *restrict, __isoc_va_list);
int vsnprintf(char *restrict, size_t, const char *restrict, __isoc_va_list);

int scanf(const char *restrict, ...);
int fscanf(FILE *restrict, const char *restrict, ...);
int sscanf(const char *restrict, const char *restrict, ...);
int vscanf(const char *restrict, __isoc_va_list);
int vfscanf(FILE *restrict, const char *restrict, __isoc_va_list);
int vsscanf(const char *restrict, const char *restrict, __isoc_va_list);

void perror(const char *);

int setvbuf(FILE *restrict, char *restrict, int, size_t);
void setbuf(FILE *restrict, char *restrict);

char *tmpnam(char *);
FILE *tmpfile(void);




FILE *fmemopen(void *restrict, size_t, const char *restrict);
FILE *open_memstream(char **, size_t *);
FILE *fdopen(int, const char *);
FILE *popen(const char *, const char *);
int pclose(FILE *);
int fileno(FILE *);
int fseeko(FILE *, off_t, int);
off_t ftello(FILE *);
int dprintf(int, const char *restrict, ...);
int vdprintf(int, const char *restrict, __isoc_va_list);
void flockfile(FILE *);
int ftrylockfile(FILE *);
void funlockfile(FILE *);
int getc_unlocked(FILE *);
int getchar_unlocked(void);
int putc_unlocked(int, FILE *);
int putchar_unlocked(int);
ssize_t getdelim(char **restrict, size_t *restrict, int, FILE *restrict);
ssize_t getline(char **restrict, size_t *restrict, FILE *restrict);
int renameat(int, const char *, int, const char *);
char *ctermid(char *);







char *tempnam(const char *, const char *);
# 39 "SeriCon_lib/CRC16_CCITT.h" 2





    extern uint16_t CRC16_CCITT_getCRC16(uint8_t data, uint16_t crc16);
# 35 "SeriCon_lib/CRC16_CCITT.c" 2

uint16_t CRC16_CCITT_getCRC16(uint8_t data, uint16_t crc16) {
    static const uint16_t table[256] = {0x0000, 0x1189, 0x2312, 0x329B, 0x4624, 0x57AD, 0x6536, 0x74BF, 0x8C48, 0x9DC1, 0xAF5A, 0xBED3, 0xCA6C, 0xDBE5, 0xE97E, 0xF8F7, 0x1081, 0x0108, 0x3393, 0x221A,
        0x56A5, 0x472C, 0x75B7, 0x643E, 0x9CC9, 0x8D40, 0xBFDB, 0xAE52, 0xDAED, 0xCB64, 0xF9FF, 0xE876, 0x2102, 0x308B, 0x0210, 0x1399, 0x6726, 0x76AF, 0x4434, 0x55BD, 0xAD4A, 0xBCC3, 0x8E58,
        0x9FD1, 0xEB6E, 0xFAE7, 0xC87C, 0xD9F5, 0x3183, 0x200A, 0x1291, 0x0318, 0x77A7, 0x662E, 0x54B5, 0x453C, 0xBDCB, 0xAC42, 0x9ED9, 0x8F50, 0xFBEF, 0xEA66, 0xD8FD, 0xC974, 0x4204, 0x538D,
        0x6116, 0x709F, 0x0420, 0x15A9, 0x2732, 0x36BB, 0xCE4C, 0xDFC5, 0xED5E, 0xFCD7, 0x8868, 0x99E1, 0xAB7A, 0xBAF3, 0x5285, 0x430C, 0x7197, 0x601E, 0x14A1, 0x0528, 0x37B3, 0x263A, 0xDECD,
        0xCF44, 0xFDDF, 0xEC56, 0x98E9, 0x8960, 0xBBFB, 0xAA72, 0x6306, 0x728F, 0x4014, 0x519D, 0x2522, 0x34AB, 0x0630, 0x17B9, 0xEF4E, 0xFEC7, 0xCC5C, 0xDDD5, 0xA96A, 0xB8E3, 0x8A78, 0x9BF1,
        0x7387, 0x620E, 0x5095, 0x411C, 0x35A3, 0x242A, 0x16B1, 0x0738, 0xFFCF, 0xEE46, 0xDCDD, 0xCD54, 0xB9EB, 0xA862, 0x9AF9, 0x8B70, 0x8408, 0x9581, 0xA71A, 0xB693, 0xC22C, 0xD3A5, 0xE13E,
        0xF0B7, 0x0840, 0x19C9, 0x2B52, 0x3ADB, 0x4E64, 0x5FED, 0x6D76, 0x7CFF, 0x9489, 0x8500, 0xB79B, 0xA612, 0xD2AD, 0xC324, 0xF1BF, 0xE036, 0x18C1, 0x0948, 0x3BD3, 0x2A5A, 0x5EE5, 0x4F6C,
        0x7DF7, 0x6C7E, 0xA50A, 0xB483, 0x8618, 0x9791, 0xE32E, 0xF2A7, 0xC03C, 0xD1B5, 0x2942, 0x38CB, 0x0A50, 0x1BD9, 0x6F66, 0x7EEF, 0x4C74, 0x5DFD, 0xB58B, 0xA402, 0x9699, 0x8710, 0xF3AF,
        0xE226, 0xD0BD, 0xC134, 0x39C3, 0x284A, 0x1AD1, 0x0B58, 0x7FE7, 0x6E6E, 0x5CF5, 0x4D7C, 0xC60C, 0xD785, 0xE51E, 0xF497, 0x8028, 0x91A1, 0xA33A, 0xB2B3, 0x4A44, 0x5BCD, 0x6956, 0x78DF,
        0x0C60, 0x1DE9, 0x2F72, 0x3EFB, 0xD68D, 0xC704, 0xF59F, 0xE416, 0x90A9, 0x8120, 0xB3BB, 0xA232, 0x5AC5, 0x4B4C, 0x79D7, 0x685E, 0x1CE1, 0x0D68, 0x3FF3, 0x2E7A, 0xE70E, 0xF687, 0xC41C,
        0xD595, 0xA12A, 0xB0A3, 0x8238, 0x93B1, 0x6B46, 0x7ACF, 0x4854, 0x59DD, 0x2D62, 0x3CEB, 0x0E70, 0x1FF9, 0xF78F, 0xE606, 0xD49D, 0xC514, 0xB1AB, 0xA022, 0x92B9, 0x8330, 0x7BC7, 0x6A4E,
        0x58D5, 0x495C, 0x3DE3, 0x2C6A, 0x1EF1, 0x0F78};
    crc16 = table[(uint8_t) (crc16 & 0x00FF) ^ data] ^ (crc16 >> 8);
    return crc16;
}
